nadia-irdina.github.io - Data Insights
…
Who are the Directors and what is their impact to the show?

Upon looking at the seasonal popularity and showing a distribution skewed to the right, it begs the question as to what causes the dip in popularity other than the time factor.

An episode is engaging when its cinematography and action sequences are appealing to the audience. It’s when the characters are portrayed well and fleshed out visually, alongside good visual effects and constuming for the zombies. This is determined by the episode’s director, and the walking dead engaged 55 different directors throughout its runtime.

Based on the table below, Greg Nicotero is a director that has the most amount of impact in determining how the show succeeds. However, his average viewcount is not the maximum value. Ernest Dickerson holds the title.

This means that the success of the show is not necessarily determined by who it is directed by.

# A tibble: 55 × 3
   directed_by           episode_count average_viewcount
   <chr>                         <int>             <dbl>
 1 Greg Nicotero                    37          9494324.
 2 Michael E. Satrazemis            17          9205294.
 3 David Boyd                       13          8150769.
 4 Ernest Dickerson                 10         10462000 
 5 Billy Gierhart                    6          9845000 
 6 Guy Ferland                       6          8785000 
 7 Laura Belsey                      6          2855000 
 8 Jeffrey F. January                5          9174000 
 9 Michael Cudlitz                   4          3270000 
10 Sharat Raju                       4          2232500 
# ℹ 45 more rows
…
Who are the Writers and what is their impact?

Then, we look at the writers involved in The Walking Dead. They hold a very important role in creating a show that is successful, as they create the narrative that will eventually be visualised by the director. They build the characters and brainstorm ideas.

The table below looks at the names of writers in descending order of how many episodes they write for. We see that Angela Kang and Scott M. Gimple hold the highest number of written episodes.

# A tibble: 69 × 3
   written_by                        episode_count average_viewcount
   <chr>                                     <int>             <dbl>
 1 Angela Kang                                  15         10610000 
 2 Scott M. Gimple                              13         12201538.
 3 Corey Reed                                    8          8022500 
 4 Channing Powell                               7          9961429.
 5 Matthew Negrete                               7         11538571.
 6 Matthew Negrete & Channing Powell             7         10992857.
 7 David Leslie Johnson-McGoldrick               6          4340000 
 8 Seth Hoffman                                  6         12926667.
 9 Robert Kirkman                                5         11810000 
10 Vivian Tse                                    5          2652000 
# ℹ 59 more rows
…
